[
  {
    "address": "0x107a7649B2f480E4B7D7e9D95B9Ee54C43Ccb95a",
    "token_a_address": "0x78046515a6CED8e39F78e28c9844c729c42fb114",
    "token_a_symbol": "TKN1",
    "token_a_initial_amount": {
      "type": "BigNumber",
      "hex": "0x3b9aca00"
    },
    "token_b_address": "0xBc453cfE84a8Beb569e53286bBccb48486a01CE5",
    "token_b_symbol": "TKN2",
    "token_b_initial_amount": {
      "type": "BigNumber",
      "hex": "0x3635c9adc5dea00000"
    }
  }
]